\relax 
\citation{zhang2014named}
\citation{ahlgren2012survey}
\citation{jacobson2009networking}
\citation{gusev2015ndn}
\citation{deering1990multicast}
\citation{afanasyev2014nfd}
\@writefile{toc}{\contentsline {section}{\numberline {I}Introduction}{1}\protected@file@percent }
\@writefile{toc}{\contentsline {section}{\numberline {II}Preliminary Background}{1}\protected@file@percent }
\newlabel{Section Preliminary Background}{{II}{1}}
\@writefile{lof}{\contentsline {figure}{\numberline {1}{\ignorespaces Problem statement.}}{2}\protected@file@percent }
\newlabel{ProblemStatement}{{1}{2}}
\@writefile{toc}{\contentsline {section}{\numberline {III}Switching Between Multicast and Unicast}{2}\protected@file@percent }
\newlabel{Section Switching Between Multicast and Unicast}{{III}{2}}
\@writefile{toc}{\contentsline {subsection}{\numberline {\unhbox \voidb@x \hbox {III-A}}Switching decision making.}{2}\protected@file@percent }
\newlabel{Section Switching decision making}{{\unhbox \voidb@x \hbox {III-A}}{2}}
\@writefile{lof}{\contentsline {figure}{\numberline {2}{\ignorespaces Random retreat.}}{2}\protected@file@percent }
\newlabel{RandomRetreat}{{2}{2}}
\@writefile{toc}{\contentsline {subsection}{\numberline {\unhbox \voidb@x \hbox {III-B}}Sending the request.}{2}\protected@file@percent }
\bibstyle{IEEEtran}
\bibdata{sigproc}
\bibcite{zhang2014named}{1}
\bibcite{ahlgren2012survey}{2}
\bibcite{jacobson2009networking}{3}
\bibcite{gusev2015ndn}{4}
\bibcite{deering1990multicast}{5}
\bibcite{afanasyev2014nfd}{6}
\@writefile{lof}{\contentsline {figure}{\numberline {3}{\ignorespaces Leaving of Nodes}}{3}\protected@file@percent }
\newlabel{NodeLeaving}{{3}{3}}
\@writefile{toc}{\contentsline {subsection}{\numberline {\unhbox \voidb@x \hbox {III-C}}Dealing with Leaving.}{3}\protected@file@percent }
\@writefile{toc}{\contentsline {section}{\numberline {IV}Discussion}{3}\protected@file@percent }
\newlabel{Section Discussion}{{IV}{3}}
\@writefile{toc}{\contentsline {section}{\numberline {V}Conclusion}{3}\protected@file@percent }
\newlabel{Section Conlusion}{{V}{3}}
\@writefile{toc}{\contentsline {section}{References}{3}\protected@file@percent }
